<?xml version="1.0" encoding="UTF-8" standalone="no"?>
<!-- Generator: Adobe Illustrator 13.0.2, SVG Export Plug-In . SVG Version: 6.00 Build 14948)  -->

<svg
   xmlns:osb="http://www.openswatchbook.org/uri/2009/osb"
   xmlns:dc="http://purl.org/dc/elements/1.1/"
   xmlns:cc="http://creativecommons.org/ns#"
   xmlns:rdf="http://www.w3.org/1999/02/22-rdf-syntax-ns#"
   xmlns:svg="http://www.w3.org/2000/svg"
   xmlns="http://www.w3.org/2000/svg"
   xmlns:sodipodi="http://sodipodi.sourceforge.net/DTD/sodipodi-0.dtd"
   xmlns:inkscape="http://www.inkscape.org/namespaces/inkscape"
   version="1.1"
   id="Layer_1"
   x="0px"
   y="0px"
   width="121.99999"
   height="121.99999"
   viewBox="-0.258 -0.548 122 121.99999"
   xml:space="preserve"
   inkscape:version="0.48.5 r10040"
   sodipodi:docname="icon.svg"
   inkscape:export-filename="E:\Dropbox\Android\JedalneMlyny\tmp\fork_and_spoon_clip_art_9343\icon.png"
   inkscape:export-xdpi="23.60656"
   inkscape:export-ydpi="23.60656"><metadata
   id="metadata3017"><rdf:RDF><cc:Work
       rdf:about=""><dc:format>image/svg+xml</dc:format><dc:type
         rdf:resource="http://purl.org/dc/dcmitype/StillImage" /><dc:title></dc:title></cc:Work></rdf:RDF></metadata><defs
   id="defs3015"><linearGradient
     id="linearGradient5257"
     osb:paint="solid"><stop
       style="stop-color:#000000;stop-opacity:1;"
       offset="0"
       id="stop5259" /></linearGradient></defs><sodipodi:namedview
   pagecolor="#ffffff"
   bordercolor="#666666"
   borderopacity="1"
   objecttolerance="10"
   gridtolerance="10"
   guidetolerance="10"
   inkscape:pageopacity="0"
   inkscape:pageshadow="2"
   inkscape:window-width="1680"
   inkscape:window-height="988"
   id="namedview3013"
   showgrid="false"
   inkscape:snap-object-midpoints="true"
   inkscape:snap-bbox="true"
   showborder="true"
   inkscape:zoom="5.6568543"
   inkscape:cx="54.666073"
   inkscape:cy="61.261598"
   inkscape:window-x="-8"
   inkscape:window-y="-8"
   inkscape:window-maximized="1"
   inkscape:current-layer="g3003"
   fit-margin-top="1"
   fit-margin-left="1"
   fit-margin-right="1"
   fit-margin-bottom="1" />
<g
   id="g3003"
   transform="translate(-0.1216254,-1.4173785)">
	
	
	
	
<path
   sodipodi:end="4.712389"
   sodipodi:start="1.5707963"
   transform="matrix(-2.4963778,0,0,3.0076841,140.46363,-27.528219)"
   d="M 31.886203,49.67197 C 18.612136,49.671971 7.8513778,40.740542 7.8513775,29.723067 7.8513771,18.705591 18.612134,9.7741626 31.886201,9.7741623 c 1e-6,0 1e-6,0 1e-6,0 l 0,19.9489037 z"
   sodipodi:ry="19.948904"
   sodipodi:rx="24.034824"
   sodipodi:cy="29.723066"
   sodipodi:cx="31.886202"
   id="path5481"
   style="fill:#940075;fill-opacity:1;stroke:none"
   sodipodi:type="arc" /><path
   sodipodi:type="arc"
   style="fill:#fa00c7;fill-opacity:1;stroke:none"
   id="path3797"
   sodipodi:cx="31.886202"
   sodipodi:cy="29.723066"
   sodipodi:rx="24.034824"
   sodipodi:ry="19.948904"
   d="M 31.886203,49.67197 C 18.612136,49.671971 7.8513778,40.740542 7.8513775,29.723067 7.8513771,18.705591 18.612134,9.7741626 31.886201,9.7741623 c 1e-6,0 1e-6,0 1e-6,0 l 0,19.9489037 z"
   transform="matrix(2.4963778,0,0,3.0076841,-18.736379,-27.528219)"
   sodipodi:start="1.5707963"
   sodipodi:end="4.712389" /><path
   inkscape:connector-curvature="0"
   style="fill:#f5f5f5;fill-opacity:1"
   d="m 56.711,43.301 c 0,3.258 -2.969,6.734 -6.812,6.734 v 55.031 c 0,7.805 -10.656,7.805 -10.656,0 V 50.035 c -3.75,0 -7.008,-2.891 -7.008,-7.227 V 12.535 c 0,-2.633 3.805,-2.742 3.805,0.102 V 35.02 H 39.228 42.9 42.619 V 12.465 c 0,-2.531 3.57,-2.625 3.57,0.094 V 35.02 H 53 V 12.465 c 0,-2.492 3.711,-2.586 3.711,0.094 v 30.742 z"
   id="path3009" /><path
   inkscape:connector-curvature="0"
   style="fill:#f5f5f5;fill-opacity:1"
   d="m 84.993632,19.582 v 85.445 c 0,7.641 -10.672,7.531 -10.672,0 V 71.145 h -5.688 V 19.582 c 0,-11.992 16.36,-11.992 16.36,0 z"
   id="path3011" /></g>
</svg>